
Host Name:                 DESKTOP-O8M4SIT
OS Name:                   Њ ©Єа®б®дв Windows 11 Pro
OS Version:                10.0.22000 N/A Build 22000
OS Manufacturer:           Microsoft Corporation
OS Configuration:          Standalone Workstation
OS Build Type:             Multiprocessor Free
Registered Owner:          N/A
Registered Organization:   N/A
Product ID:                00331-10000-00001-AA944
Original Install Date:     13.03.2022, 17:40:05
System Boot Time:          25.04.2022, 11:40:58
System Manufacturer:       Notebook                        
System Model:              N95TP6                         
System Type:               x64-based PC
Processor(s):              1 Processor(s) Installed.
                           [01]: Intel64 Family 6 Model 158 Stepping 10 GenuineIntel ~3192 Mhz
BIOS Version:              American Megatrends Inc. 1.07.10, 26.10.2018
Windows Directory:         C:\WINDOWS
System Directory:          C:\WINDOWS\system32
Boot Device:               \Device\HarddiskVolume2
System Locale:             uk;гЄа х­бмЄ 
Input Locale:              uk;гЄа х­бмЄ 
Time Zone:                 (UTC+02:00) ‚?«м­об, ѓҐ«мб?­Є?, ЉЁхў, ђЁЈ , ‘®д?п, ’ ««?­­
Total Physical Memory:     16я262 MB
Available Physical Memory: 5я669 MB
Virtual Memory: Max Size:  24я966 MB
Virtual Memory: Available: 7я279 MB
Virtual Memory: In Use:    17я687 MB
Page File Location(s):     D:\pagefile.sys
Domain:                    WORKGROUP
Logon Server:              \\DESKTOP-O8M4SIT
Hotfix(s):                 4 Hotfix(s) Installed.
                           [01]: KB5012121
                           [02]: KB5007575
                           [03]: KB5012592
                           [04]: KB5011650
Network Card(s):           4 NIC(s) Installed.
                           [01]: Intel(R) Wireless-AC 9260 160MHz
                                 Connection Name: Wi-Fi
                                 DHCP Enabled:    Yes
                                 DHCP Server:     192.168.0.1
                                 IP address(es)
                                 [01]: 192.168.0.224
                           [02]: HotspotShield TAP-Windows Adapter V9
                                 Connection Name: HotspotShield Network Adapter
                                 Status:          Media disconnected
                           [03]: VirtualBox Host-Only Ethernet Adapter
                                 Connection Name: VirtualBox Host-Only Network
                                 DHCP Enabled:    No
                                 IP address(es)
                                 [01]: 192.168.56.1
                           [04]: Realtek PCIe GbE Family Controller
                                 Connection Name: Ethernet
                                 Status:          Media disconnected
Hyper-V Requirements:      A hypervisor has been detected. Features required for Hyper-V will not be displayed.